<?xml version="1.0" encoding="utf-8"?>
<!-- Generator: Adobe Illustrator 26.0.3, SVG Export Plug-In . SVG Version: 6.00 Build 0)  -->
<svg version="1.1" id="Layer_1" xmlns="http://www.w3.org/2000/svg" xmlns:xlink="http://www.w3.org/1999/xlink" x="0px" y="0px"
	 viewBox="0 0 33 33" style="enable-background:new 0 0 33 33;" xml:space="preserve">
<style type="text/css">
	.st0{fill:none;stroke:#082244;stroke-width:2;stroke-miterlimit:10;}
</style>
<g>
	<path class="st0" d="M20.2,28.7v-5.6c0-2-1.7-3.7-3.7-3.7l0,0c-2,0-3.7,1.7-3.7,3.7v5.6l0,0H4.5V13.3l12-8.8l12,8.8v15.4H20.2
		L20.2,28.7z"/>
</g>
</svg>
