<!-- <svg xmlns="http://www.w3.org/2000/svg" width="19" height="17" viewBox="0 0 19 17">
  <g fill="#FFFFFF" fill-rule="evenodd" transform="translate(0 -13)" font-size="40" font-family="FreightSansProSemibold-Regular, FreightSans Pro" font-weight="500">
    <text>
      <tspan x="0" y="40">‘</tspan>
    </text>
    <text>
      <tspan x="10" y="44">’</tspan>
    </text>
  </g>
</svg>
 -->


 
<svg width="35px" height="40px" viewBox="0 0 35 40" version="1.1" xmlns="http://www.w3.org/2000/svg" xmlns:xlink="http://www.w3.org/1999/xlink">
    <!-- Generator: Sketch 45.2 (43514) - http://www.bohemiancoding.com/sketch -->
    <desc>Created with Sketch.</desc>
    <defs></defs>
    <g id="Link-Tiles" stroke="none" stroke-width="1" fill="none" fill-rule="evenodd">
        <path d="M17.9496385,39.6784197 L17.9496385,39.6784197 C8.02989032,39.6784197 0,31.6479564 0,21.7287812 L0,0 L34.9549211,0 L34.9549211,22.6731371 C34.9549211,32.0261571 27.3026585,39.6784197 17.9496385,39.6784197" id="Combined-Shape" fill="#1D958A"></path>
        <g id="Group" transform="translate(8.000000, -1.000000)" font-size="40" font-family="FreightSansProSemibold-Regular, FreightSans Pro" fill="#FFFFFF" font-weight="500">
            <g id="Group-2">
                <text id="‘">
                    <tspan x="0" y="40">‘</tspan>
                </text>
                <text id="’">
                    <tspan x="10" y="44">’</tspan>
                </text>
            </g>
        </g>
    </g>
</svg>