<svg xmlns="http://www.w3.org/2000/svg" width="239" height="65" viewBox="0 0 239 65">
  <g fill="none" fill-rule="evenodd">
    <path fill="#6C3F99" d="M203.980663 41.017882L222.915883 45.9161937 218.017894 26.9812183 203.980663 41.017882zM238.804933 61.8051145L182 47.110368 224.110237 5 238.804933 61.8051145zM23.7116116 17.3148546C15.3666659 22.1328112 12.4968979 32.8429311 17.3148546 41.1878768 22.1328112 49.5328225 32.8429311 52.4025904 41.1878768 47.5846338 49.5328225 42.7666771 52.4025904 32.0565573 47.5846338 23.7116116 42.7666771 15.3666659 32.0565573 12.4968979 23.7116116 17.3148546zM48.6777047 60.5573963C33.1787129 69.5057434 13.2904392 64.1766965 4.34209207 48.6777047-4.60625501 33.1787129.722791872 13.2904392 16.2217837 4.34209207 31.7207755-4.60625501 51.6090492.722791872 60.5573963 16.2217837 69.5057434 31.7207755 64.1766965 51.6090492 48.6777047 60.5573963z"/>
    <path fill="#2AAA9E" d="M114.789441,23.8030979 L109.991877,19.6326398 C112.674594,16.5465273 112.346367,11.852665 109.260255,9.1699483 C106.174142,6.48723163 101.48028,6.81545846 98.7975632,9.90157096 L94,5.73111288 C98.9825853,-0.000695804238 107.698904,-0.610200191 113.430713,4.37238509 C119.162521,9.35497036 119.772026,18.0712892 114.789441,23.8030979 Z"/>
  </g>
</svg>
