<svg xmlns="http://www.w3.org/2000/svg" width="109" height="87" viewBox="0 0 109 87">
  <g fill="none" fill-rule="evenodd">
    <polygon fill="#6C3F99" points="8.282 86.74 0 72.394 40.645 48.928 17.179 8.282 31.524 0 63.273 54.991"/>
    <path fill="#2AAA9E" d="M108.898018,51.9490088 C108.898018,56.8913674 104.891725,60.8980176 99.9490088,60.8980176 C95.0066502,60.8980176 91,56.8913674 91,51.9490088 C91,47.0062923 95.0066502,43 99.9490088,43 C104.891725,43 108.898018,47.0062923 108.898018,51.9490088"/>
  </g>
</svg>
