<?xml version="1.0" encoding="utf-8"?>
<!-- Generator: Adobe Illustrator 23.0.1, SVG Export Plug-In . SVG Version: 6.00 Build 0)  -->
<svg version="1.1" id="Layer_1" xmlns="http://www.w3.org/2000/svg" xmlns:xlink="http://www.w3.org/1999/xlink" x="0px" y="0px"
	 viewBox="0 0 2074 703" style="enable-background:new 0 0 2074 703;" xml:space="preserve">
<style type="text/css">
	.st0{fill:#00B0AD;}
	.st1{fill:#ED6D41;}
</style>
<rect x="-52.2" y="-44.1" class="st0" width="2203.3" height="783.7"/>
<g>
	<g>
		<path class="st1" d="M1091,145.6h-7.2c0,9.5,7.7,17.2,17.2,17.2c9.5,0,17.2-7.7,17.2-17.2h-7.2c0,5.5-4.5,10-10,10
			C1095.5,155.6,1091,151.1,1091,145.6"/>
	</g>
	<polygon class="st1" points="822.6,140.4 805.6,167.9 839.6,167.9 	"/>
	<rect x="1231.8" y="143.1" class="st1" width="22" height="22"/>
	<path class="st1" d="M1828.8,158.6h-8.9v-8.9h8.9V158.6z M1835.5,143.1h-22.1v22.1h22.1V143.1z"/>
	<rect x="953.1" y="145.6" class="st1" width="17.1" height="17.1"/>
	<polygon class="st1" points="1665.8,167.9 1699.7,167.9 1682.8,140.4 	"/>
	<path class="st1" d="M1958,143.4h-8.9c0,11.9,9.6,21.5,21.5,21.5c11.9,0,21.5-9.6,21.5-21.5h-8.9c0,6.9-5.6,12.5-12.5,12.5
		C1963.6,155.9,1958,150.3,1958,143.4"/>
	<path class="st1" d="M1538.7,167.6c7.4,0,13.5-6,13.5-13.5c0-7.4-6-13.5-13.5-13.5c-7.4,0-13.5,6-13.5,13.5
		C1525.3,161.6,1531.3,167.6,1538.7,167.6"/>
	<polygon class="st1" points="1411.7,161.3 1397.4,147 1389.5,139.2 1381.7,147 1367.4,161.3 1375.2,169.1 1389.5,154.8 
		1403.9,169.1 	"/>
	<g>
		<path class="st1" d="M526.1,163.6c5.2,0,9.4-4.2,9.4-9.4c0-5.2-4.2-9.4-9.4-9.4s-9.4,4.2-9.4,9.4
			C516.6,159.4,520.9,163.6,526.1,163.6"/>
	</g>
	<g>
		<path class="st1" d="M658,143.4h-8.9c0,11.9,9.6,21.5,21.5,21.5c11.9,0,21.5-9.6,21.5-21.5h-8.9c0,6.9-5.6,12.5-12.5,12.5
			S658,150.3,658,143.4"/>
	</g>
	<g>
		<path class="st1" d="M97.4,169.6c8.5,0,15.4-6.9,15.4-15.4c0-8.5-6.9-15.4-15.4-15.4c-8.5,0-15.4,6.9-15.4,15.4
			C82,162.7,88.9,169.6,97.4,169.6"/>
	</g>
	<polygon class="st1" points="243.4,140.4 226.4,167.9 260.4,167.9 	"/>
	<rect x="374" y="139.6" class="st1" width="29.1" height="29.1"/>
</g>
<g>
	<g>
		<path class="st1" d="M963,665h-7.2c0,9.5,7.7,17.2,17.2,17.2c9.5,0,17.2-7.7,17.2-17.2H983c0,5.5-4.5,10-10,10
			C967.4,675.1,963,670.6,963,665"/>
	</g>
	<polygon class="st1" points="1251.4,659.9 1234.4,687.3 1268.4,687.3 	"/>
	<rect x="820.2" y="662.6" class="st1" width="22" height="22"/>
	<path class="st1" d="M245.2,669.2h8.9v8.9h-8.9V669.2z M238.5,684.7h22.1v-22.1h-22.1V684.7z"/>
	<rect x="1103.7" y="665.1" class="st1" width="17.1" height="17.1"/>
	<polygon class="st1" points="374.3,687.3 408.2,687.3 391.2,659.9 	"/>
	<path class="st1" d="M91,662.9H82c0,11.9,9.6,21.5,21.5,21.5c11.9,0,21.5-9.6,21.5-21.5H116c0,6.9-5.6,12.5-12.5,12.5
		S91,669.8,91,662.9"/>
	<path class="st1" d="M535.3,660.2c-7.4,0-13.5,6-13.5,13.5s6,13.5,13.5,13.5s13.5-6,13.5-13.5S542.7,660.2,535.3,660.2"/>
	<polygon class="st1" points="706.6,680.8 692.3,666.5 684.5,658.6 676.6,666.5 662.3,680.8 670.1,688.6 684.5,674.3 698.8,688.6 	
		"/>
	<g>
		<path class="st1" d="M1547.9,664.2c-5.2,0-9.4,4.2-9.4,9.4c0,5.2,4.2,9.4,9.4,9.4s9.4-4.2,9.4-9.4
			C1557.4,668.4,1553.1,664.2,1547.9,664.2"/>
	</g>
	<g>
		<path class="st1" d="M1390.9,662.9h-8.9c0,11.9,9.6,21.5,21.5,21.5c11.9,0,21.5-9.6,21.5-21.5h-8.9c0,6.9-5.6,12.5-12.5,12.5
			C1396.5,675.4,1390.9,669.8,1390.9,662.9"/>
	</g>
	<g>
		<path class="st1" d="M1976.6,658.2c-8.5,0-15.4,6.9-15.4,15.4c0,8.5,6.9,15.4,15.4,15.4s15.4-6.9,15.4-15.4
			C1992,665.1,1985.1,658.2,1976.6,658.2"/>
	</g>
	<polygon class="st1" points="1830.6,659.9 1813.6,687.3 1847.6,687.3 	"/>
	<rect x="1670.9" y="659.1" class="st1" width="29.1" height="29.1"/>
</g>
<g>
	<g>
		<path class="st1" d="M1531.5,402.2h-7.2c0,9.5,7.7,17.2,17.2,17.2c9.5,0,17.2-7.7,17.2-17.2h-7.2c0,5.5-4.5,10-10,10
			C1536,412.2,1531.5,407.7,1531.5,402.2"/>
	</g>
	<polygon class="st1" points="1690.7,397.1 1673.7,424.5 1707.7,424.5 	"/>
	<polygon class="st1" points="966.8,399.8 953.2,421.8 980.4,421.8 	"/>
	<g>
		<path class="st1" d="M233.9,398.8h-10c0,13.2,10.7,24,24,24c13.2,0,24-10.7,24-24h-10c0,7.7-6.3,14-14,14S233.9,406.5,233.9,398.8
			"/>
	</g>
	<rect x="537.2" y="398.7" class="st1" width="24.1" height="24.1"/>
	<g>
		<path class="st1" d="M828,400.6c-5.6,0-10.2,4.6-10.2,10.2c0,5.6,4.6,10.2,10.2,10.2s10.2-4.6,10.2-10.2
			C838.2,405.2,833.6,400.6,828,400.6"/>
	</g>
	<path class="st1" d="M94.8,406.7h8.1v8.1h-8.1V406.7z M88.8,420.9h20.1v-20.1H88.8V420.9z"/>
	<path class="st1" d="M1390.8,405.5h10.6v10.6h-10.6V405.5z M1382.9,424h26.4v-26.4h-26.4V424z"/>
	<g>
		<path class="st1" d="M689.6,397.6c-7.3,0-13.2,5.9-13.2,13.2s5.9,13.2,13.2,13.2c7.3,0,13.2-5.9,13.2-13.2
			S696.9,397.6,689.6,397.6"/>
	</g>
	<path class="st1" d="M404.5,403.9l10.2,17.7h-20.4L404.5,403.9z M422.2,426.1l-17.7-30.6l-17.7,30.6H422.2z"/>
	<rect x="1095.4" y="399.8" class="st1" width="22" height="22"/>
	<polygon class="st1" points="1267.9,416.5 1256.4,405.1 1250.1,398.8 1243.9,405.1 1232.4,416.5 1238.7,422.8 1250.1,411.3 
		1261.6,422.8 	"/>
	<polygon class="st1" points="1971.7,399.8 1958.1,421.8 1985.2,421.8 	"/>
	<g>
		<path class="st1" d="M1832.9,400.6c-5.6,0-10.2,4.6-10.2,10.2c0,5.6,4.6,10.2,10.2,10.2s10.2-4.6,10.2-10.2
			C1843,405.2,1838.5,400.6,1832.9,400.6"/>
	</g>
</g>
<g>
	<g>
		<path class="st1" d="M1749.2,535.1h-10c0,13.2,10.7,24,24,24s24-10.7,24-24h-10c0,7.7-6.3,14-14,14S1749.2,542.8,1749.2,535.1"/>
	</g>
	<path class="st1" d="M1912.8,549.3h-8.1v-8.1h8.1V549.3z M1918.8,535.2h-20.1v20.1h20.1V535.2z"/>
	<path class="st1" d="M1610,535.1l10.2,17.7h-20.4L1610,535.1z M1627.6,557.3l-17.7-30.6l-17.7,30.6H1627.6z"/>
	<g>
		<path class="st1" d="M2045.8,560.7c8.5,0,15.4-6.9,15.4-15.4c0-8.5-6.9-15.4-15.4-15.4c-8.5,0-15.4,6.9-15.4,15.4
			C2030.4,553.8,2037.3,560.7,2045.8,560.7"/>
	</g>
	<polygon class="st1" points="1465.5,528.3 1450.3,552.9 1480.7,552.9 	"/>
	<g>
		<path class="st1" d="M316.7,532h-10c0,13.2,10.7,24,24,24s24-10.7,24-24h-10c0,7.7-6.3,14-14,14S316.7,539.7,316.7,532"/>
	</g>
	<path class="st1" d="M480.3,546.2h-8.1v-8.1h8.1V546.2z M486.3,532.1h-20.1v20.1h20.1V532.1z"/>
	<path class="st1" d="M177.5,532.1l10.2,17.7h-20.4L177.5,532.1z M195.1,554.2l-17.7-30.6l-17.7,30.6H195.1z"/>
	<g>
		<path class="st1" d="M613.3,557.6c8.5,0,15.4-6.9,15.4-15.4c0-8.5-6.9-15.4-15.4-15.4c-8.5,0-15.4,6.9-15.4,15.4
			C597.9,550.7,604.8,557.6,613.3,557.6"/>
	</g>
	<polygon class="st1" points="757.3,528.4 740.3,555.9 774.2,555.9 	"/>
	<g>
		<path class="st1" d="M1311.6,533.4h-7.2c0,9.5,7.7,17.2,17.2,17.2c9.5,0,17.2-7.7,17.2-17.2h-7.2c0,5.5-4.5,10-10,10
			C1316,543.4,1311.6,538.9,1311.6,533.4"/>
	</g>
	<path class="st1" d="M1174.3,536.7h10.6v10.6h-10.6V536.7z M1166.4,555.2h26.4v-26.4h-26.4V555.2z"/>
	<rect x="885.8" y="531" class="st1" width="22" height="22"/>
	<polygon class="st1" points="1054.8,547.7 1043.4,536.3 1037.1,530 1030.9,536.3 1019.4,547.7 1025.7,554 1037.1,542.5 1048.6,554 
			"/>
	<polygon class="st1" points="48.2,547.7 36.8,536.3 30.5,530 24.3,536.3 12.8,547.7 19,554 30.5,542.5 42,554 	"/>
</g>
<g>
	<polygon class="st1" points="463.7,271.5 450.1,293.5 477.3,293.5 	"/>
	<g>
		<path class="st1" d="M1166.6,270.5h-10c0,13.2,10.7,24,24,24s24-10.7,24-24h-10c0,7.7-6.3,14-14,14S1166.6,278.3,1166.6,270.5"/>
	</g>
	<rect x="867.9" y="270.5" class="st1" width="24.1" height="24.1"/>
	<g>
		<path class="st1" d="M602.1,292.7c5.6,0,10.2-4.6,10.2-10.2c0-5.6-4.6-10.2-10.2-10.2c-5.6,0-10.2,4.6-10.2,10.2
			C591.9,288.1,596.5,292.7,602.1,292.7"/>
	</g>
	<path class="st1" d="M1333.3,286.6h-8.1v-8.1h8.1V286.6z M1339.3,272.5h-20.1v20.1h20.1V272.5z"/>
	<g>
		<path class="st1" d="M740.1,295.7c7.3,0,13.2-5.9,13.2-13.2s-5.9-13.2-13.2-13.2s-13.2,5.9-13.2,13.2S732.8,295.7,740.1,295.7"/>
	</g>
	<path class="st1" d="M1024.3,275.7l10.2,17.7h-20.4L1024.3,275.7z M1042,297.8l-17.7-30.6l-17.7,30.6H1042z"/>
	<g>
		<path class="st1" d="M1901.2,292c5.2,0,9.4-4.2,9.4-9.4c0-5.2-4.2-9.4-9.4-9.4s-9.4,4.2-9.4,9.4
			C1891.7,287.7,1895.9,292,1901.2,292"/>
	</g>
	<g>
		<path class="st1" d="M2034.2,271.8h-8.9c0,11.9,9.6,21.5,21.5,21.5c11.9,0,21.5-9.6,21.5-21.5h-8.9c0,6.9-5.6,12.5-12.5,12.5
			C2039.8,284.3,2034.2,278.7,2034.2,271.8"/>
	</g>
	<g>
		<path class="st1" d="M1469.4,297.9c8.5,0,15.4-6.9,15.4-15.4c0-8.5-6.9-15.4-15.4-15.4s-15.4,6.9-15.4,15.4
			C1454,291,1460.9,297.9,1469.4,297.9"/>
	</g>
	<polygon class="st1" points="1616.4,268.8 1599.4,296.3 1633.4,296.3 	"/>
	<rect x="1748" y="268" class="st1" width="29.1" height="29.1"/>
	<rect x="313.5" y="271.5" class="st1" width="22" height="22"/>
	<polygon class="st1" points="198.9,288.3 187.4,276.8 181.1,270.5 174.9,276.8 163.4,288.3 169.7,294.5 181.1,283 192.6,294.5 	"/>
	<path class="st1" d="M14.8,271.8H5.8c0,11.9,9.6,21.5,21.5,21.5c11.9,0,21.5-9.6,21.5-21.5h-8.9c0,6.9-5.6,12.5-12.5,12.5
		C20.4,284.3,14.8,278.7,14.8,271.8"/>
</g>
<g>
	<g>
		<path class="st1" d="M1306.1,35.2c5.2,0,9.4-4.2,9.4-9.4c0-5.2-4.2-9.4-9.4-9.4s-9.4,4.2-9.4,9.4
			C1296.7,31,1300.9,35.2,1306.1,35.2"/>
	</g>
	<rect x="1892.5" y="15.6" class="st1" width="20.4" height="20.4"/>
	<g>
		<path class="st1" d="M1439.3,15h-8.9c0,11.9,9.6,21.5,21.5,21.5c11.9,0,21.5-9.6,21.5-21.5h-8.9c0,6.9-5.6,12.5-12.5,12.5
			S1439.3,21.9,1439.3,15"/>
	</g>
	<polygon class="st1" points="170.1,13.5 154.9,38.1 185.3,38.1 	"/>
	<g>
		<path class="st1" d="M873.7,41.2c8.5,0,15.4-6.9,15.4-15.4c0-8.5-6.9-15.4-15.4-15.4c-8.5,0-15.4,6.9-15.4,15.4
			C858.3,34.3,865.2,41.2,873.7,41.2"/>
	</g>
	<rect x="721.5" y="14.8" class="st1" width="22" height="22"/>
	<g>
		<path class="st1" d="M310.4,36c5.7,0,10.3-4.6,10.3-10.3s-4.6-10.3-10.3-10.3c-5.7,0-10.3,4.6-10.3,10.3S304.7,36,310.4,36"/>
	</g>
	<path class="st1" d="M450.1,30h-8.4v-8.4h8.4V30z M456.4,15.3h-20.9v20.9h20.9V15.3z"/>
	<polygon class="st1" points="1603.3,13.5 1588.1,38.1 1618.5,38.1 	"/>
	<path class="st1" d="M2045.4,18.9l10.2,17.7h-20.4L2045.4,18.9z M2063,41.1l-17.7-30.6l-17.7,30.6H2063z"/>
	<polygon class="st1" points="1020.9,12 1004,39.5 1037.9,39.5 	"/>
	<rect x="1152.7" y="11.2" class="st1" width="29.1" height="29.1"/>
	<polygon class="st1" points="606.6,31.5 595.2,20 588.9,13.8 582.6,20 571.2,31.5 577.4,37.8 588.9,26.3 600.4,37.8 	"/>
	<polygon class="st1" points="1777.7,32.9 1763.3,18.6 1755.5,10.8 1747.7,18.6 1733.4,32.9 1741.2,40.8 1755.5,26.4 1769.9,40.8 	
		"/>
	<rect x="11" y="11.2" class="st1" width="29.1" height="29.1"/>
</g>
</svg>
