<svg xmlns="http://www.w3.org/2000/svg" width="1050" height="788" viewBox="0 0 1050 788">
  <path fill="#2AAA9E" fill-rule="evenodd" d="M1049.3058,859 L0,859 L0,71 L611,71 L856.527522,316.527522 C796.540157,373.967852 759.185542,454.854684 759.185542,544.466155 C759.185542,710.177674 886.924231,846.054224 1049.3058,859 Z" style="mix-blend-mode:multiply" transform="translate(0 -71)"/>
</svg>
